R Primer
…
# e.g.

data %>%
  select(column1, column2, column3)

no need to specify data again within the select function here, because data is being “piped” into the function

select(): example

The “babynames” dataset (from R package “babynames”) from the US government gives baby names and frequency by year, according to Social Security card applications.

select(babynames, name, prop)

# A tibble: 1,924,665 × 2
   name        prop
   <chr>      <dbl>
 1 Mary      0.0724
 2 Anna      0.0267
 3 Emma      0.0205
 4 Elizabeth 0.0199
 5 Minnie    0.0179
 6 Margaret  0.0162
 7 Ida       0.0151
 8 Alice     0.0145
 9 Bertha    0.0135
10 Sarah     0.0132
# … with 1,924,655 more rows
# ℹ Use `print(n = ...)` to see more rows

select(): example with pipe

The following code uses the pipe and does the same thing as previous slide.

babynames %>%
  select(name, prop)

# A tibble: 1,924,665 × 2
   name        prop
   <chr>      <dbl>
 1 Mary      0.0724
 2 Anna      0.0267
 3 Emma      0.0205
 4 Elizabeth 0.0199
 5 Minnie    0.0179
 6 Margaret  0.0162
 7 Ida       0.0151
 8 Alice     0.0145
 9 Bertha    0.0135
10 Sarah     0.0132
# … with 1,924,655 more rows
# ℹ Use `print(n = ...)` to see more rows
…
“mpg” dataset (from package “ggplot2”) gives fuel economy data from 1999 to 2008 for 30 popular models of cars.

Select all columns that fall between ‘cty’= city miles per gallon and ‘class’ = “type” of car (inclusive).

colnames(mpg)

 [1] "manufacturer" "model"        "displ"        "year"         "cyl"         
 [6] "trans"        "drv"          "cty"          "hwy"          "fl"          
[11] "class"       

mpg %>%
  select(cty:class)

# A tibble: 234 × 4
     cty   hwy fl    class  
   <int> <int> <chr> <chr>  
 1    18    29 p     compact
 2    21    29 p     compact
 3    20    31 p     compact
 4    21    30 p     compact
 5    16    26 p     compact
 6    18    26 p     compact
 7    18    27 p     compact
 8    18    26 p     compact
 9    16    25 p     compact
10    20    28 p     compact
# … with 224 more rows
# ℹ Use `print(n = ...)` to see more rows

select(): helper functions

Can also select variables with helper functions.

Using the - selects all variables except those listed

mpg %>%
  select(-c(cty, hwy))

# A tibble: 234 × 9
   manufacturer model      displ  year   cyl trans      drv   fl    class  
   <chr>        <chr>      <dbl> <int> <int> <chr>      <chr> <chr> <chr>  
 1 audi         a4           1.8  1999     4 auto(l5)   f     p     compact
 2 audi         a4           1.8  1999     4 manual(m5) f     p     compact
 3 audi         a4           2    2008     4 manual(m6) f     p     compact
 4 audi         a4           2    2008     4 auto(av)   f     p     compact
 5 audi         a4           2.8  1999     6 auto(l5)   f     p     compact
 6 audi         a4           2.8  1999     6 manual(m5) f     p     compact
 7 audi         a4           3.1  2008     6 auto(av)   f     p     compact
 8 audi         a4 quattro   1.8  1999     4 manual(m5) 4     p     compact
 9 audi         a4 quattro   1.8  1999     4 auto(l5)   4     p     compact
10 audi         a4 quattro   2    2008     4 manual(m6) 4     p     compact
# … with 224 more rows
# ℹ Use `print(n = ...)` to see more rows

select(): helper functions

Select all variables starting with the letter “c”.

mpg %>%
  select(starts_with("c"))

# A tibble: 234 × 3
     cyl   cty class  
   <int> <int> <chr>  
 1     4    18 compact
 2     4    21 compact
 3     4    20 compact
 4     4    21 compact
 5     6    16 compact
 6     6    18 compact
 7     6    18 compact
 8     4    18 compact
 9     4    16 compact
10     4    20 compact
# … with 224 more rows
# ℹ Use `print(n = ...)` to see more rows

select(): helper functions

Select all variables ending with the letter “y”. ::: {style=“font-size: 1.4em”}

mpg %>%
  select(ends_with("y"))

# A tibble: 234 × 2
     cty   hwy
   <int> <int>
 1    18    29
 2    21    29
 3    20    31
 4    21    30
 5    16    26
 6    18    26
 7    18    27
 8    18    26
 9    16    25
10    20    28
# … with 224 more rows
# ℹ Use `print(n = ...)` to see more rows
…
Criteria can be one or more logical tests. Returns each row for which the test is TRUE.

Takes in a data frame or tibble and returns a data frame / tibble.

tribble is used to create a row-wise, readable tibble. useful for creating small tables of data. a tibble is similar to a data frame. two key differences are 1) how they are printed and 2) . When a tibble is printed, it shows the first ten rows and all the columns that can be fit on a screen

filter(): example

Filter to all observations (rows) with the name “Garrett”.

babynames %>%
  filter(name == "Garrett")

# A tibble: 177 × 5
    year sex   name        n      prop
   <dbl> <chr> <chr>   <int>     <dbl>
 1  1880 M     Garrett    13 0.000110 
 2  1881 M     Garrett     7 0.0000646
 3  1882 M     Garrett    15 0.000123 
 4  1883 M     Garrett    13 0.000116 
 5  1884 M     Garrett    15 0.000122 
 6  1885 M     Garrett     9 0.0000776
 7  1886 M     Garrett    16 0.000134 
 8  1887 M     Garrett    14 0.000128 
 9  1888 M     Garrett    10 0.0000770
10  1889 M     Garrett    16 0.000134 
# … with 167 more rows
# ℹ Use `print(n = ...)` to see more rows
…
x < 3   

[1] TRUE

x >= 2 & x < 3  # both true

[1] TRUE

filter() with conditions

babynames %>%
  filter(name =="Sue", sex == "M")

# A tibble: 52 × 5
    year sex   name      n       prop
   <dbl> <chr> <chr> <int>      <dbl>
 1  1917 M     Sue       7 0.0000073 
 2  1927 M     Sue       5 0.0000043 
 3  1928 M     Sue       5 0.00000438
 4  1930 M     Sue       5 0.00000443
 5  1931 M     Sue       6 0.00000561
 6  1932 M     Sue       7 0.00000652
 7  1933 M     Sue       7 0.00000686
 8  1934 M     Sue      14 0.0000132 
 9  1935 M     Sue      13 0.0000122 
10  1936 M     Sue       9 0.00000846
# … with 42 more rows
# ℹ Use `print(n = ...)` to see more rows

filter() with conditions

parentheses matter!

babynames %>%
  filter((n==5 | n==6) & year == 1880)

# A tibble: 455 × 5
    year sex   name        n      prop
   <dbl> <chr> <chr>   <int>     <dbl>
 1  1880 F     Abby        6 0.0000615
 2  1880 F     Aileen      6 0.0000615
 3  1880 F     Alba        6 0.0000615
 4  1880 F     Alda        6 0.0000615
 5  1880 F     Alla        6 0.0000615
 6  1880 F     Alverta     6 0.0000615
 7  1880 F     Ara         6 0.0000615
 8  1880 F     Ardelia     6 0.0000615
 9  1880 F     Ardella     6 0.0000615
10  1880 F     Arrie       6 0.0000615
# … with 445 more rows
# ℹ Use `print(n = ...)` to see more rows
…
Your turn!

In your groups, complete Exercise 3.

arrange()

Order data from smallest to largest values

babynames %>%
  arrange(n)

# A tibble: 1,924,665 × 5
    year sex   name          n      prop
   <dbl> <chr> <chr>     <int>     <dbl>
 1  1880 F     Adelle        5 0.0000512
 2  1880 F     Adina         5 0.0000512
 3  1880 F     Adrienne      5 0.0000512
 4  1880 F     Albertine     5 0.0000512
 5  1880 F     Alys          5 0.0000512
 6  1880 F     Ana           5 0.0000512
 7  1880 F     Araminta      5 0.0000512
 8  1880 F     Arthur        5 0.0000512
 9  1880 F     Birtha        5 0.0000512
10  1880 F     Bulah         5 0.0000512
# … with 1,924,655 more rows
# ℹ Use `print(n = ...)` to see more rows

arrange()

Order data from largest to smallest values

babynames %>%
  arrange(desc(n))

# A tibble: 1,924,665 × 5
    year sex   name        n   prop
   <dbl> <chr> <chr>   <int>  <dbl>
 1  1947 F     Linda   99686 0.0548
 2  1948 F     Linda   96209 0.0552
 3  1947 M     James   94756 0.0510
 4  1957 M     Michael 92695 0.0424
 5  1947 M     Robert  91642 0.0493
 6  1949 F     Linda   91016 0.0518
 7  1956 M     Michael 90620 0.0423
 8  1958 M     Michael 90520 0.0420
 9  1948 M     James   88588 0.0497
10  1954 M     Michael 88514 0.0428
# … with 1,924,655 more rows
# ℹ Use `print(n = ...)` to see more rows

Performing multiple steps

boys_2015 <- babynames %>% filter(year == 2015, sex == "M")
boys_2015 <- boys_2015 %>% select(name, n)
boys_2015 <- boys_2015 %>% arrange(desc(n))
boys_2015

# A tibble: 14,024 × 2
   name          n
   <chr>     <int>
 1 Noah      19613
 2 Liam      18355
 3 Mason     16610
 4 Jacob     15938
 5 William   15889
 6 Ethan     15069
 7 James     14799
 8 Alexander 14531
 9 Michael   14413
10 Benjamin  13692
# … with 14,014 more rows
# ℹ Use `print(n = ...)` to see more rows

Performing multiple steps: nesting functions

Not recommended - gets quite confusing

arrange(select(filter(babynames, year == 2015, 
  sex == "M"), name, n), desc(n))

# A tibble: 14,024 × 2
   name          n
   <chr>     <int>
 1 Noah      19613
 2 Liam      18355
 3 Mason     16610
 4 Jacob     15938
 5 William   15889
 6 Ethan     15069
 7 James     14799
 8 Alexander 14531
 9 Michael   14413
10 Benjamin  13692
# … with 14,014 more rows
# ℹ Use `print(n = ...)` to see more rows
…
mutate()

mutate()

Create new columns

babynames %>%
  mutate(percent = round(prop*100, 2))

# A tibble: 1,924,665 × 6
    year sex   name          n   prop percent
   <dbl> <chr> <chr>     <int>  <dbl>   <dbl>
 1  1880 F     Mary       7065 0.0724    7.24
 2  1880 F     Anna       2604 0.0267    2.67
 3  1880 F     Emma       2003 0.0205    2.05
 4  1880 F     Elizabeth  1939 0.0199    1.99
 5  1880 F     Minnie     1746 0.0179    1.79
 6  1880 F     Margaret   1578 0.0162    1.62
 7  1880 F     Ida        1472 0.0151    1.51
 8  1880 F     Alice      1414 0.0145    1.45
 9  1880 F     Bertha     1320 0.0135    1.35
10  1880 F     Sarah      1288 0.0132    1.32
# … with 1,924,655 more rows
# ℹ Use `print(n = ...)` to see more rows

mutate()

babynames %>%
  mutate(percent = round(prop*100, 2), 
         nper = round(percent))

# A tibble: 1,924,665 × 7
    year sex   name          n   prop percent  nper
   <dbl> <chr> <chr>     <int>  <dbl>   <dbl> <dbl>
 1  1880 F     Mary       7065 0.0724    7.24     7
 2  1880 F     Anna       2604 0.0267    2.67     3
 3  1880 F     Emma       2003 0.0205    2.05     2
 4  1880 F     Elizabeth  1939 0.0199    1.99     2
 5  1880 F     Minnie     1746 0.0179    1.79     2
 6  1880 F     Margaret   1578 0.0162    1.62     2
 7  1880 F     Ida        1472 0.0151    1.51     2
 8  1880 F     Alice      1414 0.0145    1.45     1
 9  1880 F     Bertha     1320 0.0135    1.35     1
10  1880 F     Sarah      1288 0.0132    1.32     1
# … with 1,924,655 more rows
# ℹ Use `print(n = ...)` to see more rows
…
In the modelr package

Uses the values in a data frame to generate a prediction for each case. Can be new data!

add_predictions(data, model, var = "pred")

var = "pred" gives new column this name

add_predictions() for height lm

wages %>%
  add_predictions(mod_h)

# A tibble: 5,266 × 9
   income height weight   age marital  sex    education  afqt  pred
    <int>  <dbl>  <int> <int> <fct>    <fct>      <int> <dbl> <dbl>
 1  19000     60    155    53 married  female        13  6.84  10.1
 2  35000     70    156    51 married  female        10 49.4   10.6
 3 105000     65    195    52 married  male          16 99.4   10.4
 4  40000     63    197    54 married  female        14 44.0   10.3
 5  75000     66    190    49 married  male          14 59.7   10.4
 6 102000     68    200    49 divorced female        18 98.8   10.5
 7  70000     64    160    54 divorced female        12 50.3   10.3
 8  60000     69    162    55 divorced male          12 89.7   10.6
 9 150000     69    194    54 divorced male          13 96.0   10.6
10 115000     64    145    53 married  female        16 67.0   10.3
# … with 5,256 more rows
# ℹ Use `print(n = ...)` to see more rows

add_residuals()

Uses the values in a data frame to generate a residual for each case.

add_residuals(data, model, var = "resid")

var = "resid" gives new column this name

add_residuals()

wages %>%
  add_residuals(mod_h)

# A tibble: 5,266 × 9
   income height weight   age marital  sex    education  afqt  resid
    <int>  <dbl>  <int> <int> <fct>    <fct>      <int> <dbl>  <dbl>
 1  19000     60    155    53 married  female        13  6.84 -0.250
 2  35000     70    156    51 married  female        10 49.4  -0.159
 3 105000     65    195    52 married  male          16 99.4   1.20 
 4  40000     63    197    54 married  female        14 44.0   0.339
 5  75000     66    190    49 married  male          14 59.7   0.811
 6 102000     68    200    49 divorced female        18 98.8   1.01 
 7  70000     64    160    54 divorced female        12 50.3   0.846
 8  60000     69    162    55 divorced male          12 89.7   0.432
 9 150000     69    194    54 divorced male          13 96.0   1.35 
10 115000     64    145    53 married  female        16 67.0   1.34 
# … with 5,256 more rows
# ℹ Use `print(n = ...)` to see more rows
…
spread_residuals()

Adds residuals for multiple models, each in their own column.

spread_residuals(data, model1, model2, ...)

spread_residuals()

wages %>%
  spread_residuals(mod_h, mod_eh, mod_ehs)

# A tibble: 5,266 × 11
   income height weight   age marital  sex   educa…¹  afqt  mod_h mod_eh mod_ehs
    <int>  <dbl>  <int> <int> <fct>    <fct>   <int> <dbl>  <dbl>  <dbl>   <dbl>
 1  19000     60    155    53 married  fema…      13  6.84 -0.250 -0.198  -0.264
 2  35000     70    156    51 married  fema…      10 49.4  -0.159  0.346   0.724
 3 105000     65    195    52 married  male       16 99.4   1.20   0.854   0.506
 4  40000     63    197    54 married  fema…      14 44.0   0.339  0.263   0.312
 5  75000     66    190    49 married  male       14 59.7   0.811  0.747   0.459
 6 102000     68    200    49 divorced fema…      18 98.8   1.01   0.403   0.623
 7  70000     64    160    54 divorced fema…      12 50.3   0.846  1.05    1.16 
 8  60000     69    162    55 divorced male       12 89.7   0.432  0.656   0.512
 9 150000     69    194    54 divorced male       13 96.0   1.35   1.43    1.28 
10 115000     64    145    53 married  fema…      16 67.0   1.34   0.993   1.07 
# … with 5,256 more rows, and abbreviated variable name ¹​education
# ℹ Use `print(n = ...)` to see more rows
gather_residuals()

Adds residuals for multiple models as a pair of key:value columns (model:resid)

gather_residuals(data, model1, model2, ...)

Adds residuals from model1 and model2 to the cases in the specified data (duplicating rows as necessary)

gather_residuals()

wages %>%
  gather_residuals(mod_h, mod_eh, mod_ehs) %>%
  arrange(income, height)

# A tibble: 15,798 × 10
   model   income height weight   age marital sex    education  afqt resid
   <chr>    <int>  <dbl>  <int> <int> <fct>   <fct>      <int> <dbl> <dbl>
 1 mod_h       45     64    185    52 single  female        14  47.3 -6.50
 2 mod_eh      45     64    185    52 single  female        14  47.3 -6.58
 3 mod_ehs     45     64    185    52 single  female        14  47.3 -6.48
 4 mod_h       72     70    167    50 married male          12  23.3 -6.35
 5 mod_eh      72     70    167    50 married male          12  23.3 -6.12
 6 mod_ehs     72     70    167    50 married male          12  23.3 -6.22
 7 mod_h      100     68    180    51 widowed female        13  36.4 -5.91
 8 mod_eh     100     68    180    51 widowed female        13  36.4 -5.83
 9 mod_ehs    100     68    180    51 widowed female        13  36.4 -5.56
10 mod_h      100     70    250    50 single  male          20  81.3 -6.02
# … with 15,788 more rows
# ℹ Use `print(n = ...)` to see more rows
…
